---
http_interactions:
- request:
    method: get
    uri: https://api.flickr.com/services/rest/?api_key=a7ab1a4164e9792dec1c1add83f76007&format=json&method=flickr.photos.search&tags=denver,co
    body:
      encoding: US-ASCII
      string: ''
    headers:
      User-Agent:
      - Faraday v0.17.0
      Accept-Encoding:
      - gzip;q=1.0,deflate;q=0.6,identity;q=0.3
      Accept:
      - "*/*"
  response:
    status:
      code: 200
      message: OK
    headers:
      Content-Type:
      - text/javascript; charset=utf-8
      Transfer-Encoding:
      - chunked
      Connection:
      - keep-alive
      Date:
      - Wed, 06 Nov 2019 00:03:43 GMT
      Server:
      - Apache/2.4.41 (Ubuntu)
      X-Content-Type-Options:
      - nosniff
      X-Frame-Options:
      - SAMEORIGIN
      X-Cache:
      - Miss from cloudfront
      Via:
      - 1.1 48a6ccbb0ddb052ab512a3422295bd39.cloudfront.net (CloudFront)
      X-Amz-Cf-Pop:
      - DEN50-C2
      X-Amz-Cf-Id:
      - Y1UP5DSMcj4JWIxUmCpc4eqFh3-rua6XkMOf77qj4H6J8F8XTCl7ZQ==
    body:
      encoding: UTF-8
      string: 'jsonFlickrApi({"photos":{"page":1,"pages":9141,"perpage":100,"total":"914097","photo":[{"id":"49021265996","owner":"17017714@N04","secret":"dcaf934562","server":"65535","farm":66,"title":"Hang
        in there!","ispublic":1,"isfriend":0,"isfamily":0},{"id":"49020742338","owner":"17017714@N04","secret":"e92805e11d","server":"65535","farm":66,"title":"Hang
        in there!","ispublic":1,"isfriend":0,"isfamily":0},{"id":"49020741683","owner":"17017714@N04","secret":"a63e7eb479","server":"65535","farm":66,"title":"Hang
        in there!","ispublic":1,"isfriend":0,"isfamily":0},{"id":"49020741273","owner":"144643761@N08","secret":"6a1fea5e89","server":"65535","farm":66,"title":"Bucket
        o\u2019 Salt in Denver. #","ispublic":1,"isfriend":0,"isfamily":0},{"id":"49021178216","owner":"32145601@N05","secret":"303dc66fac","server":"65535","farm":66,"title":"Joe
        Shetterly''s Vans RV-8 s\/n 80733, N76540, Telluride Festival of Cars and
        Colors airshow, Telluride airport, 28 September 2019.","ispublic":1,"isfriend":0,"isfamily":0},{"id":"49021379357","owner":"32145601@N05","secret":"622b670795","server":"65535","farm":66,"title":"Vans
        RV-8 N76540","ispublic":1,"isfriend":0,"isfamily":0},{"id":"49020545298","owner":"32145601@N05","secret":"28b2e8392a","server":"65535","farm":66,"title":"1967
        Shelby Mustang GT 500","ispublic":1,"isfriend":0,"isfamily":0},{"id":"49020402523","owner":"83067426@N02","secret":"9da11690f3","server":"65535","farm":66,"title":"Oldsmobile
        Club Coup\u00e9* 1949 (0162)","ispublic":1,"isfriend":0,"isfamily":0},{"id":"49019649576","owner":"75372896@N00","secret":"18152dc1cc","server":"65535","farm":66,"title":"Cymbidium
        Unknown [c\/o Karen] hybrid orchid 10-19","ispublic":1,"isfriend":0,"isfamily":0},{"id":"49019457281","owner":"33215734@N04","secret":"4d0e6275cf","server":"65535","farm":66,"title":"New
        York Sour","ispublic":1,"isfriend":0,"isfamily":0},{"id":"49019284181","owner":"17017714@N04","secret":"3974f7ffed","server":"65535","farm":66,"title":"The
        Hearse Parade","ispublic":1,"isfriend":0,"isfamily":0},{"id":"49019480827","owner":"17017714@N04","secret":"5ac8da730f","server":"65535","farm":66,"title":"The
        Hearse Parade","ispublic":1,"isfriend":0,"isfamily":0},{"id":"49019282866","owner":"17017714@N04","secret":"7bd3f05176","server":"65535","farm":66,"title":"The
        Hearse Parade","ispublic":1,"isfriend":0,"isfamily":0},{"id":"49019479412","owner":"17017714@N04","secret":"515ff1e8e6","server":"65535","farm":66,"title":"The
        Hearse Parade","ispublic":1,"isfriend":0,"isfamily":0},{"id":"49018753833","owner":"28327815@N08","secret":"e1924b4fe2","server":"65535","farm":66,"title":"The
        Big Meadow","ispublic":1,"isfriend":0,"isfamily":0},{"id":"49018749943","owner":"32145601@N05","secret":"7d08c1f7bf","server":"65535","farm":66,"title":"1969
        Shelby GT 500","ispublic":1,"isfriend":0,"isfamily":0},{"id":"49018749863","owner":"32145601@N05","secret":"a6bb3fb40f","server":"65535","farm":66,"title":"2013
        Shelby GT 500","ispublic":1,"isfriend":0,"isfamily":0},{"id":"49019471632","owner":"32145601@N05","secret":"2d92a67eab","server":"65535","farm":66,"title":"2016
        Shelby GT 350","ispublic":1,"isfriend":0,"isfamily":0},{"id":"49019274536","owner":"32145601@N05","secret":"a11ec089ed","server":"65535","farm":66,"title":"2017
        Shelby GT 350","ispublic":1,"isfriend":0,"isfamily":0},{"id":"49018749638","owner":"32145601@N05","secret":"a69bec5403","server":"65535","farm":66,"title":"2018
        Shelby GT 350","ispublic":1,"isfriend":0,"isfamily":0},{"id":"49018749548","owner":"32145601@N05","secret":"1a61f1d2f5","server":"65535","farm":66,"title":"2007
        Shelby GT 500","ispublic":1,"isfriend":0,"isfamily":0},{"id":"49018749478","owner":"32145601@N05","secret":"22dee534fb","server":"65535","farm":66,"title":"1965
        Shelby GT 350","ispublic":1,"isfriend":0,"isfamily":0},{"id":"49019215691","owner":"151483626@N05","secret":"8a76e70079","server":"65535","farm":66,"title":"Clients
        of Denver Concepts are able to trust this growing firm to deliver excellence
        and operate with integrity.","ispublic":1,"isfriend":0,"isfamily":0},{"id":"49018652048","owner":"42564685@N03","secret":"6dde5ca875","server":"65535","farm":66,"title":"1998
        Metal Universe Precious Metal Gems #3 Ed McCaffrey \/50","ispublic":1,"isfriend":0,"isfamily":0},{"id":"49019496132","owner":"17017714@N04","secret":"6860e20e72","server":"65535","farm":66,"title":"Halloween
        on Broadway","ispublic":1,"isfriend":0,"isfamily":0},{"id":"49019028187","owner":"138798666@N02","secret":"9c160520dc","server":"65535","farm":66,"title":"flatbed
        tow truck Denver","ispublic":1,"isfriend":0,"isfamily":0},{"id":"49018182138","owner":"66944894@N06","secret":"b34409e9ed","server":"65535","farm":66,"title":"Snow
        on Cobweb","ispublic":1,"isfriend":0,"isfamily":0},{"id":"49018585746","owner":"61914949@N00","secret":"06427ff5df","server":"65535","farm":66,"title":"","ispublic":1,"isfriend":0,"isfamily":0},{"id":"49017935143","owner":"45923298@N00","secret":"7516ac4e6e","server":"65535","farm":66,"title":"Manitou
        Springs, CO The Timber Lodge motel sign","ispublic":1,"isfriend":0,"isfamily":0},{"id":"49018456616","owner":"45923298@N00","secret":"1b573c3d45","server":"65535","farm":66,"title":"Manitou
        Springs, CO Mel-Haven Lodge motel sign","ispublic":1,"isfriend":0,"isfamily":0},{"id":"49018657992","owner":"45923298@N00","secret":"b778ddd17e","server":"65535","farm":66,"title":"Manitou
        Springs, CO Ute Trading Post neon sign","ispublic":1,"isfriend":0,"isfamily":0},{"id":"49018456236","owner":"45923298@N00","secret":"36908aebd1","server":"65535","farm":66,"title":"Manitou
        Springs, CO former service station","ispublic":1,"isfriend":0,"isfamily":0},{"id":"49018456006","owner":"45923298@N00","secret":"475d56b4e7","server":"65535","farm":66,"title":"Manitou
        Springs, CO Patsy''s","ispublic":1,"isfriend":0,"isfamily":0},{"id":"49018455856","owner":"45923298@N00","secret":"0e3527dbd5","server":"65535","farm":66,"title":"Manitou
        Springs, CO Second Empire building","ispublic":1,"isfriend":0,"isfamily":0},{"id":"49018656987","owner":"45923298@N00","secret":"b7c3deba55","server":"65535","farm":66,"title":"Manitou
        Springs, CO Arcade neon sign","ispublic":1,"isfriend":0,"isfamily":0},{"id":"49017765801","owner":"66944894@N06","secret":"29e90f0b94","server":"65535","farm":66,"title":"Western
        Sports","ispublic":1,"isfriend":0,"isfamily":0},{"id":"49016931483","owner":"146628561@N02","secret":"a8aa377b78","server":"65535","farm":66,"title":"Why
        to Take Part in Yoga Classes? @ https:\/\/tinyurl.com\/yyakdyzm #Yoga #YogaTTC
        #Yogi #YogaTraining","ispublic":1,"isfriend":0,"isfamily":0},{"id":"49017167032","owner":"185285041@N05","secret":"a55a0aa39b","server":"0","farm":0,"title":"Tips
        To Locate A Expert Web Design Company","ispublic":1,"isfriend":0,"isfamily":0},{"id":"49017117372","owner":"39836272@N07","secret":"f9a7fbdb14","server":"65535","farm":66,"title":"Climbing
        Raton Pass","ispublic":1,"isfriend":0,"isfamily":0},{"id":"49017068282","owner":"45923298@N00","secret":"435dfb6ce5","server":"65535","farm":66,"title":"Trinidad,
        CO Mantelli''s","ispublic":1,"isfriend":0,"isfamily":0},{"id":"49017067462","owner":"45923298@N00","secret":"011b719d9e","server":"65535","farm":66,"title":"Trinidad,
        CO Mantelli''s","ispublic":1,"isfriend":0,"isfamily":0},{"id":"49016991282","owner":"135433950@N06","secret":"77dfd59759","server":"65535","farm":66,"title":"smart
        switchable glass, PDLC film, smart lcd film, privacy glass, intelligent glass,
        magic glass,","ispublic":1,"isfriend":0,"isfamily":0},{"id":"49016673266","owner":"143787765@N02","secret":"d458f5c511","server":"65535","farm":66,"title":"Sunset
        peeking under a layer of clouds and reflecting off another. 7-4-19, near Westminster
        Station from Denver, Colorado.  ~ ~ ~ ~ ~  #Pixel2XL F\/1.8 4mm 1\/1064s ISO-52
        #sunset #clouds #WestminsterStation #Denver #Colorado #oooShiny #oooShinyPhotos
        #oooS","ispublic":1,"isfriend":0,"isfamily":0},{"id":"49015944623","owner":"33499543@N08","secret":"5ab5ec1203","server":"65535","farm":66,"title":"A-9589","ispublic":1,"isfriend":0,"isfamily":0},{"id":"49016462501","owner":"33499543@N08","secret":"90a65757c2","server":"65535","farm":66,"title":"A-9590","ispublic":1,"isfriend":0,"isfamily":0},{"id":"49016460261","owner":"33499543@N08","secret":"d23e521044","server":"65535","farm":66,"title":"A-9591","ispublic":1,"isfriend":0,"isfamily":0},{"id":"49015939993","owner":"33499543@N08","secret":"44de69c5ff","server":"65535","farm":66,"title":"A-9592","ispublic":1,"isfriend":0,"isfamily":0},{"id":"49016660712","owner":"33499543@N08","secret":"5bb01b9a36","server":"65535","farm":66,"title":"A-9593","ispublic":1,"isfriend":0,"isfamily":0},{"id":"49016454556","owner":"33499543@N08","secret":"029b98eb89","server":"65535","farm":66,"title":"A-9594","ispublic":1,"isfriend":0,"isfamily":0},{"id":"49016657507","owner":"33499543@N08","secret":"298337b6bc","server":"65535","farm":66,"title":"A-9595","ispublic":1,"isfriend":0,"isfamily":0},{"id":"49016451316","owner":"33499543@N08","secret":"16f14fd30c","server":"65535","farm":66,"title":"A-9596","ispublic":1,"isfriend":0,"isfamily":0},{"id":"49015931328","owner":"33499543@N08","secret":"915a18bc9e","server":"65535","farm":66,"title":"A-9597","ispublic":1,"isfriend":0,"isfamily":0},{"id":"49015929963","owner":"33499543@N08","secret":"e7db37f8b5","server":"65535","farm":66,"title":"A-9598","ispublic":1,"isfriend":0,"isfamily":0},{"id":"49016447326","owner":"33499543@N08","secret":"f19412e4fa","server":"65535","farm":66,"title":"A-9599","ispublic":1,"isfriend":0,"isfamily":0},{"id":"49016445901","owner":"33499543@N08","secret":"8e3ebfb269","server":"65535","farm":66,"title":"A-9600","ispublic":1,"isfriend":0,"isfamily":0},{"id":"49016444561","owner":"33499543@N08","secret":"07773e87d7","server":"65535","farm":66,"title":"A-9601","ispublic":1,"isfriend":0,"isfamily":0},{"id":"49015924388","owner":"33499543@N08","secret":"436a247349","server":"65535","farm":66,"title":"A-9602","ispublic":1,"isfriend":0,"isfamily":0},{"id":"49016441841","owner":"33499543@N08","secret":"d28fdf9c04","server":"65535","farm":66,"title":"A-9603","ispublic":1,"isfriend":0,"isfamily":0},{"id":"49016440721","owner":"33499543@N08","secret":"b8dc3d8452","server":"65535","farm":66,"title":"A-9604","ispublic":1,"isfriend":0,"isfamily":0},{"id":"49015919873","owner":"33499543@N08","secret":"738a44bb96","server":"65535","farm":66,"title":"A-9605","ispublic":1,"isfriend":0,"isfamily":0},{"id":"49015918508","owner":"33499543@N08","secret":"597090b5cb","server":"65535","farm":66,"title":"A-9606","ispublic":1,"isfriend":0,"isfamily":0},{"id":"49015917303","owner":"33499543@N08","secret":"c9083f9420","server":"65535","farm":66,"title":"A-9607","ispublic":1,"isfriend":0,"isfamily":0},{"id":"49015916363","owner":"33499543@N08","secret":"a9ea911d62","server":"65535","farm":66,"title":"A-9608","ispublic":1,"isfriend":0,"isfamily":0},{"id":"49016433691","owner":"33499543@N08","secret":"4c63816d7b","server":"65535","farm":66,"title":"A-9609","ispublic":1,"isfriend":0,"isfamily":0},{"id":"49015913118","owner":"33499543@N08","secret":"79ee07455b","server":"65535","farm":66,"title":"A-9610","ispublic":1,"isfriend":0,"isfamily":0},{"id":"49016430686","owner":"33499543@N08","secret":"e181f9d462","server":"65535","farm":66,"title":"A-9611","ispublic":1,"isfriend":0,"isfamily":0},{"id":"49016632597","owner":"33499543@N08","secret":"06b600996d","server":"65535","farm":66,"title":"A-9612","ispublic":1,"isfriend":0,"isfamily":0},{"id":"49016630942","owner":"33499543@N08","secret":"71b34599fc","server":"65535","farm":66,"title":"A-9613","ispublic":1,"isfriend":0,"isfamily":0},{"id":"49016629587","owner":"33499543@N08","secret":"91563a279a","server":"65535","farm":66,"title":"A-9614","ispublic":1,"isfriend":0,"isfamily":0},{"id":"49016628312","owner":"33499543@N08","secret":"9d162a3ec1","server":"65535","farm":66,"title":"A-9615","ispublic":1,"isfriend":0,"isfamily":0},{"id":"49016626722","owner":"33499543@N08","secret":"c41801f908","server":"65535","farm":66,"title":"A-9618","ispublic":1,"isfriend":0,"isfamily":0},{"id":"49016624657","owner":"33499543@N08","secret":"7fb68a91d6","server":"65535","farm":66,"title":"A-9616","ispublic":1,"isfriend":0,"isfamily":0},{"id":"49015900523","owner":"33499543@N08","secret":"bdca554a0f","server":"65535","farm":66,"title":"A-9617","ispublic":1,"isfriend":0,"isfamily":0},{"id":"49015898993","owner":"33499543@N08","secret":"ab03bbd622","server":"65535","farm":66,"title":"A-9619","ispublic":1,"isfriend":0,"isfamily":0},{"id":"49016416136","owner":"33499543@N08","secret":"52be20b61b","server":"65535","farm":66,"title":"A-9620","ispublic":1,"isfriend":0,"isfamily":0},{"id":"49016414831","owner":"33499543@N08","secret":"dd15f0125b","server":"65535","farm":66,"title":"A-9621","ispublic":1,"isfriend":0,"isfamily":0},{"id":"49016616862","owner":"33499543@N08","secret":"29e2203828","server":"65535","farm":66,"title":"A-9622","ispublic":1,"isfriend":0,"isfamily":0},{"id":"49016411866","owner":"33499543@N08","secret":"e2ba5857e1","server":"65535","farm":66,"title":"A-9623","ispublic":1,"isfriend":0,"isfamily":0},{"id":"49016614022","owner":"33499543@N08","secret":"14eb24daf7","server":"65535","farm":66,"title":"A-9624","ispublic":1,"isfriend":0,"isfamily":0},{"id":"49016499887","owner":"41438448@N05","secret":"258c15111d","server":"65535","farm":66,"title":"315\/365\/8","ispublic":1,"isfriend":0,"isfamily":0},{"id":"49015895967","owner":"41864041@N05","secret":"31af07eacf","server":"65535","farm":66,"title":"191102-F-XS730-2001","ispublic":1,"isfriend":0,"isfamily":0},{"id":"49015895367","owner":"41864041@N05","secret":"9292de7e9f","server":"65535","farm":66,"title":"191102-F-XS730-2002","ispublic":1,"isfriend":0,"isfamily":0},{"id":"49015894157","owner":"41864041@N05","secret":"c8a22286da","server":"65535","farm":66,"title":"191102-F-XS730-2003","ispublic":1,"isfriend":0,"isfamily":0},{"id":"49015688666","owner":"41864041@N05","secret":"23147cabc5","server":"65535","farm":66,"title":"191102-F-XS730-2004","ispublic":1,"isfriend":0,"isfamily":0},{"id":"49015892752","owner":"41864041@N05","secret":"ab080cdc17","server":"65535","farm":66,"title":"191102-F-XS730-2005","ispublic":1,"isfriend":0,"isfamily":0},{"id":"49015164668","owner":"41864041@N05","secret":"d4f8ef4338","server":"65535","farm":66,"title":"191102-F-XS730-2006","ispublic":1,"isfriend":0,"isfamily":0},{"id":"49015685321","owner":"41864041@N05","secret":"09dbf98659","server":"65535","farm":66,"title":"191102-F-XS730-2007","ispublic":1,"isfriend":0,"isfamily":0},{"id":"49015889072","owner":"41864041@N05","secret":"5e9cc93faa","server":"65535","farm":66,"title":"191102-F-XS730-2008","ispublic":1,"isfriend":0,"isfamily":0},{"id":"49015888172","owner":"41864041@N05","secret":"d9bdbbd81c","server":"65535","farm":66,"title":"191102-F-XS730-2009","ispublic":1,"isfriend":0,"isfamily":0},{"id":"49015887697","owner":"41864041@N05","secret":"5a8a26b444","server":"65535","farm":66,"title":"191102-F-XS730-2010","ispublic":1,"isfriend":0,"isfamily":0},{"id":"49015681966","owner":"41864041@N05","secret":"e847ed39d4","server":"65535","farm":66,"title":"191102-F-XS730-2011","ispublic":1,"isfriend":0,"isfamily":0},{"id":"49015159303","owner":"41864041@N05","secret":"ecbe6532e2","server":"65535","farm":66,"title":"191102-F-XS730-2012","ispublic":1,"isfriend":0,"isfamily":0},{"id":"49015885647","owner":"41864041@N05","secret":"5e05f75520","server":"65535","farm":66,"title":"191102-F-XS730-2013","ispublic":1,"isfriend":0,"isfamily":0},{"id":"49015884857","owner":"41864041@N05","secret":"d76ec1b0d7","server":"65535","farm":66,"title":"191102-F-XS730-2014","ispublic":1,"isfriend":0,"isfamily":0},{"id":"49015679121","owner":"41864041@N05","secret":"473dec5d69","server":"65535","farm":66,"title":"191102-F-XS730-2015","ispublic":1,"isfriend":0,"isfamily":0},{"id":"49015677816","owner":"41864041@N05","secret":"7d53facb75","server":"65535","farm":66,"title":"191102-F-XS730-2016","ispublic":1,"isfriend":0,"isfamily":0},{"id":"49015881822","owner":"41864041@N05","secret":"519f65241c","server":"65535","farm":66,"title":"191102-F-XS730-2017","ispublic":1,"isfriend":0,"isfamily":0},{"id":"49015676221","owner":"41864041@N05","secret":"6126e5a395","server":"65535","farm":66,"title":"191102-F-XS730-2018","ispublic":1,"isfriend":0,"isfamily":0}]},"stat":"ok"})'
    http_version: 
  recorded_at: Wed, 06 Nov 2019 00:03:43 GMT
recorded_with: VCR 5.0.0
